…
folder <- system.file("extdata", "csvfolder", package = "flattabler")
lpt <- read_text_folder(folder)

lft <- flatten_table_list(lpt, f)

lft
#> # A tibble: 201 × 6
#>    page  col1  col2  row1  row2  value
#>    <chr> <chr> <chr> <chr> <chr> <chr>
#>  1 M1    b1    a01   e2    d4    1.88 
#>  2 M1    b1    a05   e1    d1    1.91 
#>  3 M1    b1    a05   e2    d3    1.10 
#>  4 M1    b1    a05   e2    d4    2.25 
#>  5 M1    b1    a09   e1    d1    2.55 
#>  6 M1    b1    a09   e1    d2    2.74 
#>  7 M1    b1    a09   e2    d3    3.99 
#>  8 M1    b1    a13   e1    d1    2.99 
#>  9 M1    b1    a13   e1    d2    1.02 
#> 10 M1    b1    a13   e2    d3    3.48 
#> # ℹ 191 more rows
```
…
